; no$gmb format .sym file
; Generated automagically by ASxxxx linker V01.75 (SDK 3.0.0)
; Area: .  .ABS.
00:0000 srand
00:0000 s__HEADER
00:0000 .init
00:0000 time
00:0000 s__SFR
00:0000 action
00:0200 s__CODE
00:2ADB s__HOME
00:2C87 s__BASE
00:3D9D s__LIT
00:3D9D s__GSINIT
01:4CFD s__GSINITTAIL
01:4CFE s__GSFINAL
00:C000 .OAM
00:C0A0 s__DATA
00:C330 s__BSS
00:C3B9 s__HEAP
00:C3B9 s__BSEG
00:C3B9 s__ISEG
00:C3B9 s__XSEG
00:C3B9 s__OVERLAY
00:E000 .STACK
00:FF80 .refresh_OAM
; Area: _CODE
00:0200 _redrawBG
00:0923 _drawBG
00:0FE6 _createRanInt
00:1012 _drawLifePoint
00:125E _clearLifeBar
00:1343 _clearFightMenu
00:14D2 _drawFightMenu
00:178A _attack
00:1A9B _walk
00:1ADF _mainGame
00:233B _main
00:233F _rand
00:233F _randw
00:236A .adv_gcurs
00:2387 .circle
00:242A .horlin
00:2462 .verlin
00:24BE .circplot
00:253C .box
00:2612 .line
00:2733 .xonly
00:2882 .yonly
00:28A3 .plot
00:28C0 .wrbyte
00:2942 .getpix
00:2977 .wrtchr
00:29DB _gotogxy
00:29E6 _wrtchr
00:29FB _getpix
00:2A07 _color
00:2A16 _circle
00:2A30 _box
00:2A54 _line
00:2A6C _plot_point
00:2A80 _plot
00:2A9C _putchar
00:2AA5 _setchar
00:2AAE _gotoxy
00:2AB9 _posx
00:2ACA _posy
; Area: _HEADER
00:01D2 _exit
; Area: _HOME
00:2ADB .set_mode
00:2AEB .remove_VBL
00:2AF1 .remove_LCD
00:2AF7 .remove_TIM
00:2AFD .remove_SIO
00:2B03 .remove_JOY
00:2B09 .add_VBL
00:2B0F .add_LCD
00:2B15 .add_TIM
00:2B1B .add_SIO
00:2B21 .add_JOY
00:2B27 .remove_int
00:2B47 .add_int
00:2B63 .wait_vbl_done
00:2B63 _wait_vbl_done
00:2B7A _display_off
00:2B7A .display_off
00:2B9B .serial_IO
00:2BCA _mode
00:2BD3 _get_mode
00:2BD8 _enable_interrupts
00:2BDA _disable_interrupts
00:2BDC _reset
00:2BDC .reset
00:2BE2 _set_interrupts
00:2BED _remove_VBL
00:2BF8 _remove_LCD
00:2C03 _remove_TIM
00:2C0E _remove_SIO
00:2C19 _remove_JOY
00:2C24 _add_VBL
00:2C2F _add_LCD
00:2C3A _add_TIM
00:2C45 _add_SIO
00:2C50 _add_JOY
00:2C5B _clock
00:2C64 __printTStates
00:2C65 banked_call
00:2C7E banked_ret
; Area: _BASE
00:2C87 _initrand
00:2C89 .initrand
00:2C92 __mulschar
00:2C92 __muluchar
00:2C9E __mulsint
00:2C9E __muluint
00:2CB2 .mulu16
00:2CB2 .mul16
00:2CC8 .mv_sprite
00:2CD7 _move_sprite
00:2CE4 _set_win_data
00:2CE4 _set_bkg_data
00:2D31 _set_sprite_data
00:2D60 .gmode
00:2DC2 .vbl
00:2DCD .lcd
00:2DDA .draw_image
00:2DE4 .switch_data
00:2E1B _switch_data
00:2E36 _draw_image
00:2E49 .y_table
00:2F69 .padup
00:2F69 _waitpadup
00:2F79 .jpad
00:2FA6 .wait_pad
00:2FAD _joypad
00:2FB2 _waitpad
00:2FBC .set_sprite_tile
00:2FC9 _set_sprite_tile
00:2FD4 .delay
00:300E _delay
00:3017 .init_vram
00:3025 .init_wtt
00:3035 .init_btt
00:3043 .init_tt
00:3049 __modslong
00:3049 __divslong
00:3049 __mulslong
00:304A __divschar
00:3056 __modschar
00:3061 __divsint
00:3072 __modsint
00:3081 __divuchar
00:308D __moduchar
00:3098 __divuint
00:30A9 __moduint
00:30B8 .mod8
00:30B8 .div8
00:30C0 .mod16
00:30C0 .div16
00:30F6 .modu8
00:30F6 .divu8
00:30F9 .modu16
00:30F9 .divu16
00:3136 .copy_vram
00:3145 _get_data
00:3145 _set_data
00:3158 _set_bkg_tiles
00:316C _font_load_ibm_fixed
00:3173 _font_ibm_fixed
00:3275 _font_ibm_fixed_tiles
00:3A75 .set_xy_wtt
00:3A86 .set_xy_btt
00:3A95 .set_xy_tt
00:3AC6 _set_tiles
00:3ADF font_copy_uncompressed
00:3B15 font_copy_compressed
00:3B6A font_load
00:3BB2 font_copy_current
00:3BFA font_set
00:3C07 .put_char
00:3C20 .out_char
00:3C27 .del_char
00:3C82 _font_load
00:3C90 _font_set
00:3C9F _font_init
00:3CC1 _cls
00:3CC1 .cls
00:3CF3 .cr_curs
00:3D08 .adv_curs
00:3D64 .tmode
00:3D8D .tmode_out
; Area: _LIT
; Area: _GSINIT
00:3D9D gsinit
; Area: _GSINITTAIL
; Area: _GSFINAL
; Area: _DATA
00:C0A0 _numbers
00:C0F0 _warior
00:C280 _number1
00:C290 _number2
00:C2A0 _number3
00:C2B0 _number4
00:C2C0 _number5
00:C2D0 _number6
00:C2E0 _number7
00:C2F0 _number8
00:C300 _number9
00:C310 _number0
00:C320 _numberSlash
; Area: _BSS
00:C330 __cpu
00:C331 .mode
00:C332 __io_out
00:C333 __io_in
00:C334 __io_status
00:C335 .vbl_done
00:C336 __current_bank
00:C337 _sys_time
00:C337 .sys_time
00:C339 .int_0x40
00:C349 .int_0x48
00:C359 .int_0x50
00:C369 .int_0x58
00:C379 .int_0x60
00:C389 .randhi
00:C38A .randlo
00:C38B .fg_colour
00:C38C .bg_colour
00:C3A1 font_current
00:C3A4 font_first_free_tile
00:C3A5 font_table
00:C3B7 .curx
00:C3B8 .cury
; Area: _HEAP
00:C3B9 _malloc_heap_start
; Area: _OVERLAY
; Area: _ISEG
; Area: _BSEG
; Area: _XSEG
; Area: _SFR
00:FF00 _P1_REG
00:FF01 _SB_REG
00:FF02 _SC_REG
00:FF04 _DIV_REG
00:FF05 _TIMA_REG
00:FF06 _TMA_REG
00:FF07 _TAC_REG
00:FF0F _IF_REG
00:FF10 _NR10_REG
00:FF11 _NR11_REG
00:FF12 _NR12_REG
00:FF13 _NR13_REG
00:FF14 _NR14_REG
00:FF16 _NR21_REG
00:FF17 _NR22_REG
00:FF18 _NR23_REG
00:FF19 _NR24_REG
00:FF1A _NR30_REG
00:FF1B _NR31_REG
00:FF1C _NR32_REG
00:FF1D _NR33_REG
00:FF1E _NR34_REG
00:FF20 _NR41_REG
00:FF21 _NR42_REG
00:FF22 _NR43_REG
00:FF23 _NR44_REG
00:FF24 _NR50_REG
00:FF25 _NR51_REG
00:FF26 _NR52_REG
00:FF40 _LCDC_REG
00:FF41 _STAT_REG
00:FF42 _SCY_REG
00:FF43 _SCX_REG
00:FF44 _LY_REG
00:FF45 _LYC_REG
00:FF46 _DMA_REG
00:FF47 _BGP_REG
00:FF48 _OBP0_REG
00:FF49 _OBP1_REG
00:FF4A _WY_REG
00:FF4B _WX_REG
00:FF4D _KEY1_REG
00:FF4F _VBK_REG
00:FF51 _HDMA1_REG
00:FF52 _HDMA2_REG
00:FF53 _HDMA3_REG
00:FF54 _HDMA4_REG
00:FF55 _HDMA5_REG
00:FF56 _RP_REG
00:FF68 _BCPS_REG
00:FF69 _BCPD_REG
00:FF6A _OCPS_REG
00:FF6B _OCPD_REG
00:FF70 _SVBK_REG
00:FFFF _IE_REG
